<?xml version="1.0" encoding="UTF-8" standalone="no"?>
<!-- Created with Inkscape (http://www.inkscape.org/) -->

<svg
   xmlns:dc="http://purl.org/dc/elements/1.1/"
   xmlns:cc="http://creativecommons.org/ns#"
   xmlns:rdf="http://www.w3.org/1999/02/22-rdf-syntax-ns#"
   xmlns:svg="http://www.w3.org/2000/svg"
   xmlns="http://www.w3.org/2000/svg"
   xmlns:sodipodi="http://sodipodi.sourceforge.net/DTD/sodipodi-0.dtd"
   xmlns:inkscape="http://www.inkscape.org/namespaces/inkscape"
   width="210mm"
   height="297mm"
   viewBox="0 0 210 297"
   version="1.1"
   id="svg8"
   inkscape:version="0.92.1 r15371"
   sodipodi:docname="almacenamientolutfibonacci.svg"
   inkscape:export-filename="almacenamientolutfibonacci.png"
   inkscape:export-xdpi="200"
   inkscape:export-ydpi="200">
  <sodipodi:namedview
     id="base"
     pagecolor="#ffffff"
     bordercolor="#666666"
     borderopacity="1.0"
     inkscape:pageopacity="0.0"
     inkscape:pageshadow="2"
     inkscape:zoom="0.12374369"
     inkscape:cx="-6.4521886"
     inkscape:cy="774.33895"
     inkscape:document-units="mm"
     inkscape:current-layer="layer1"
     showgrid="false"
     inkscape:window-width="1366"
     inkscape:window-height="717"
     inkscape:window-x="0"
     inkscape:window-y="27"
     inkscape:window-maximized="1"
     showguides="true"
     inkscape:guide-bbox="true" />
  <defs
     id="defs2">
    <marker
       inkscape:stockid="TriangleOutS"
       orient="auto"
       refY="0"
       refX="0"
       id="marker4756"
       style="overflow:visible"
       inkscape:isstock="true">
      <path
         inkscape:connector-curvature="0"
         id="path4754"
         d="M 5.77,0 -2.88,5 V -5 z"
         style="fill:#000000;fill-opacity:1;fill-rule:evenodd;stroke:#000000;stroke-width:1pt;stroke-opacity:1"
         transform="scale(0.2,0.2)" />
    </marker>
    <marker
       style="overflow:visible"
       id="TriangleOutM"
       refX="0.0"
       refY="0.0"
       orient="auto"
       inkscape:stockid="TriangleOutM">
      <path
         transform="scale(0.4)"
         style="fill-rule:evenodd;stroke:#000000;stroke-width:1.0pt"
         d="M 5.77,0.0 L -2.88,5.0 L -2.88,-5.0 L 5.77,0.0 z "
         id="path3971" />
    </marker>
    <marker
       style="overflow:visible"
       id="TriangleOutS"
       refX="0.0"
       refY="0.0"
       orient="auto"
       inkscape:stockid="TriangleOutS">
      <path
         transform="scale(0.2)"
         style="fill-rule:evenodd;stroke:#000000;stroke-width:1.0pt"
         d="M 5.77,0.0 L -2.88,5.0 L -2.88,-5.0 L 5.77,0.0 z "
         id="path3974" />
    </marker>
    <marker
       style="overflow:visible"
       id="TriangleInM"
       refX="0.0"
       refY="0.0"
       orient="auto"
       inkscape:stockid="TriangleInM">
      <path
         transform="scale(-0.4)"
         style="fill-rule:evenodd;stroke:#000000;stroke-width:1.0pt"
         d="M 5.77,0.0 L -2.88,5.0 L -2.88,-5.0 L 5.77,0.0 z "
         id="path3962" />
    </marker>
    <marker
       inkscape:isstock="true"
       style="overflow:visible;"
       id="Arrow2Mend"
       refX="0.0"
       refY="0.0"
       orient="auto"
       inkscape:stockid="Arrow2Mend">
      <path
         transform="scale(0.6) rotate(180) translate(0,0)"
         d="M 8.7185878,4.0337352 L -2.2072895,0.016013256 L 8.7185884,-4.0017078 C 6.9730900,-1.6296469 6.9831476,1.6157441 8.7185878,4.0337352 z "
         style="fill-rule:evenodd;stroke-width:0.625;stroke-linejoin:round;stroke:#000000;stroke-opacity:1;fill:#000000;fill-opacity:1"
         id="path4611" />
    </marker>
    <marker
       inkscape:isstock="true"
       style="overflow:visible;"
       id="Arrow1Send"
       refX="0.0"
       refY="0.0"
       orient="auto"
       inkscape:stockid="Arrow1Send">
      <path
         transform="scale(0.2) rotate(180) translate(6,0)"
         style="fill-rule:evenodd;stroke:#000000;stroke-width:1pt;stroke-opacity:1;fill:#000000;fill-opacity:1"
         d="M 0.0,0.0 L 5.0,-5.0 L -12.5,0.0 L 5.0,5.0 L 0.0,0.0 z "
         id="path4599" />
    </marker>
    <marker
       inkscape:stockid="Arrow1Mstart"
       orient="auto"
       refY="0.0"
       refX="0.0"
       id="marker5002"
       style="overflow:visible"
       inkscape:isstock="true">
      <path
         id="path5000"
         d="M 0.0,0.0 L 5.0,-5.0 L -12.5,0.0 L 5.0,5.0 L 0.0,0.0 z "
         style="fill-rule:evenodd;stroke:#000000;stroke-width:1pt;stroke-opacity:1;fill:#000000;fill-opacity:1"
         transform="scale(0.4) translate(10,0)" />
    </marker>
    <marker
       inkscape:isstock="true"
       style="overflow:visible;"
       id="Arrow1Mend"
       refX="0.0"
       refY="0.0"
       orient="auto"
       inkscape:stockid="Arrow1Mend">
      <path
         transform="scale(0.4) rotate(180) translate(10,0)"
         style="fill-rule:evenodd;stroke:#000000;stroke-width:1pt;stroke-opacity:1;fill:#000000;fill-opacity:1"
         d="M 0.0,0.0 L 5.0,-5.0 L -12.5,0.0 L 5.0,5.0 L 0.0,0.0 z "
         id="path4593" />
    </marker>
    <marker
       inkscape:isstock="true"
       style="overflow:visible"
       id="TriangleOutS-7-86-4"
       refX="0"
       refY="0"
       orient="auto"
       inkscape:stockid="TriangleOutS">
      <path
         transform="scale(0.2,0.2)"
         style="fill:#000000;fill-opacity:1;fill-rule:evenodd;stroke:#000000;stroke-width:1pt;stroke-opacity:1"
         d="M 5.77,0 -2.88,5 V -5 z"
         id="path4817-452-2-29"
         inkscape:connector-curvature="0" />
    </marker>
    <marker
       inkscape:isstock="true"
       style="overflow:visible"
       id="TriangleOutS-7-86-1"
       refX="0"
       refY="0"
       orient="auto"
       inkscape:stockid="TriangleOutS">
      <path
         transform="scale(0.2,0.2)"
         style="fill:#000000;fill-opacity:1;fill-rule:evenodd;stroke:#000000;stroke-width:1pt;stroke-opacity:1"
         d="M 5.77,0 -2.88,5 V -5 z"
         id="path4817-452-2-0"
         inkscape:connector-curvature="0" />
    </marker>
    <marker
       inkscape:isstock="true"
       style="overflow:visible"
       id="TriangleOutS-7-86-3"
       refX="0"
       refY="0"
       orient="auto"
       inkscape:stockid="TriangleOutS">
      <path
         transform="scale(0.2,0.2)"
         style="fill:#000000;fill-opacity:1;fill-rule:evenodd;stroke:#000000;stroke-width:1pt;stroke-opacity:1"
         d="M 5.77,0 -2.88,5 V -5 z"
         id="path4817-452-2-2"
         inkscape:connector-curvature="0" />
    </marker>
    <marker
       inkscape:isstock="true"
       style="overflow:visible"
       id="TriangleOutS-7-86-2"
       refX="0"
       refY="0"
       orient="auto"
       inkscape:stockid="TriangleOutS">
      <path
         transform="scale(0.2,0.2)"
         style="fill:#000000;fill-opacity:1;fill-rule:evenodd;stroke:#000000;stroke-width:1pt;stroke-opacity:1"
         d="M 5.77,0 -2.88,5 V -5 z"
         id="path4817-452-2-9"
         inkscape:connector-curvature="0" />
    </marker>
    <marker
       inkscape:isstock="true"
       style="overflow:visible"
       id="TriangleOutS-7-86"
       refX="0"
       refY="0"
       orient="auto"
       inkscape:stockid="TriangleOutS">
      <path
         transform="scale(0.2,0.2)"
         style="fill:#000000;fill-opacity:1;fill-rule:evenodd;stroke:#000000;stroke-width:1pt;stroke-opacity:1"
         d="M 5.77,0 -2.88,5 V -5 z"
         id="path4817-452-2"
         inkscape:connector-curvature="0" />
    </marker>
    <marker
       inkscape:isstock="true"
       style="overflow:visible"
       id="TriangleOutS-09-6-5"
       refX="0"
       refY="0"
       orient="auto"
       inkscape:stockid="TriangleOutS">
      <path
         transform="scale(0.2,0.2)"
         style="fill:#000000;fill-opacity:1;fill-rule:evenodd;stroke:#000000;stroke-width:1pt;stroke-opacity:1"
         d="M 5.77,0 -2.88,5 V -5 z"
         id="path4817-17-3-0"
         inkscape:connector-curvature="0" />
    </marker>
    <marker
       inkscape:isstock="true"
       style="overflow:visible"
       id="TriangleOutS-5-6"
       refX="0"
       refY="0"
       orient="auto"
       inkscape:stockid="TriangleOutS">
      <path
         transform="scale(0.2,0.2)"
         style="fill:#000000;fill-opacity:1;fill-rule:evenodd;stroke:#000000;stroke-width:1pt;stroke-opacity:1"
         d="M 5.77,0 -2.88,5 V -5 z"
         id="path4817-47-4"
         inkscape:connector-curvature="0" />
    </marker>
    <marker
       inkscape:isstock="true"
       style="overflow:visible"
       id="TriangleOutS-9-9"
       refX="0"
       refY="0"
       orient="auto"
       inkscape:stockid="TriangleOutS">
      <path
         transform="scale(0.2,0.2)"
         style="fill:#000000;fill-opacity:1;fill-rule:evenodd;stroke:#000000;stroke-width:1pt;stroke-opacity:1"
         d="M 5.77,0 -2.88,5 V -5 z"
         id="path4817-4-7"
         inkscape:connector-curvature="0" />
    </marker>
    <marker
       inkscape:isstock="true"
       style="overflow:visible"
       id="TriangleOutS-9-6"
       refX="0"
       refY="0"
       orient="auto"
       inkscape:stockid="TriangleOutS">
      <path
         transform="scale(0.2,0.2)"
         style="fill:#000000;fill-opacity:1;fill-rule:evenodd;stroke:#000000;stroke-width:1pt;stroke-opacity:1"
         d="M 5.77,0 -2.88,5 V -5 z"
         id="path4817-4-3"
         inkscape:connector-curvature="0" />
    </marker>
    <marker
       inkscape:isstock="true"
       style="overflow:visible"
       id="TriangleOutS-9-4"
       refX="0"
       refY="0"
       orient="auto"
       inkscape:stockid="TriangleOutS">
      <path
         transform="scale(0.2,0.2)"
         style="fill:#000000;fill-opacity:1;fill-rule:evenodd;stroke:#000000;stroke-width:1pt;stroke-opacity:1"
         d="M 5.77,0 -2.88,5 V -5 z"
         id="path4817-4-8"
         inkscape:connector-curvature="0" />
    </marker>
    <marker
       inkscape:isstock="true"
       style="overflow:visible"
       id="TriangleOutS-9-0"
       refX="0"
       refY="0"
       orient="auto"
       inkscape:stockid="TriangleOutS">
      <path
         transform="scale(0.2,0.2)"
         style="fill:#000000;fill-opacity:1;fill-rule:evenodd;stroke:#000000;stroke-width:1pt;stroke-opacity:1"
         d="M 5.77,0 -2.88,5 V -5 z"
         id="path4817-4-9"
         inkscape:connector-curvature="0" />
    </marker>
    <marker
       inkscape:isstock="true"
       style="overflow:visible"
       id="TriangleOutS-9-62"
       refX="0"
       refY="0"
       orient="auto"
       inkscape:stockid="TriangleOutS"
       inkscape:collect="always">
      <path
         transform="scale(0.2,0.2)"
         style="fill:#000000;fill-opacity:1;fill-rule:evenodd;stroke:#000000;stroke-width:1pt;stroke-opacity:1"
         d="M 5.77,0 -2.88,5 V -5 z"
         id="path4817-4-5"
         inkscape:connector-curvature="0" />
    </marker>
    <marker
       inkscape:isstock="true"
       style="overflow:visible"
       id="TriangleOutS-9-62-1"
       refX="0"
       refY="0"
       orient="auto"
       inkscape:stockid="TriangleOutS">
      <path
         transform="scale(0.2,0.2)"
         style="fill:#000000;fill-opacity:1;fill-rule:evenodd;stroke:#000000;stroke-width:1pt;stroke-opacity:1"
         d="M 5.77,0 -2.88,5 V -5 z"
         id="path4817-4-5-0"
         inkscape:connector-curvature="0" />
    </marker>
  </defs>
  <metadata
     id="metadata5">
    <rdf:RDF>
      <cc:Work
         rdf:about="">
        <dc:format>image/svg+xml</dc:format>
        <dc:type
           rdf:resource="http://purl.org/dc/dcmitype/StillImage" />
        <dc:title />
      </cc:Work>
    </rdf:RDF>
  </metadata>
  <g
     id="layer1"
     inkscape:groupmode="layer"
     inkscape:label="Layer 1">
    <g
       id="g3143"
       transform="translate(-77.508169,45.231675)">
      <rect
         style="fill:none;stroke:#000000;stroke-width:1;stroke-miterlimit:4;stroke-dasharray:none;stroke-opacity:1"
         id="rect3148"
         width="67.565735"
         height="74.265282"
         x="-8.095623"
         y="67.219475"
         ry="0" />
      <g
         id="g4244"
         transform="translate(174.32877,214.86159)">
        <text
           id="text4032"
           y="-78.175148"
           x="-164.2104"
           style="font-style:italic;font-variant:normal;font-weight:normal;font-stretch:normal;line-height:0%;font-family:monospace;-inkscape-font-specification:'Sans Italic';text-align:center;letter-spacing:0px;word-spacing:0px;text-anchor:middle;fill:#000000;fill-opacity:1;stroke:none"
           xml:space="preserve"><tspan
             y="-78.175148"
             x="-164.2104"
             id="tspan4034"
             sodipodi:role="line"
             style="font-size:7.90222311px;line-height:1.25;font-family:monospace">6</tspan></text>
        <text
           id="text4036"
           y="-78.175148"
           x="-132.85078"
           style="font-style:italic;font-variant:normal;font-weight:normal;font-stretch:normal;line-height:0%;font-family:monospace;-inkscape-font-specification:'Sans Italic';text-align:center;letter-spacing:0px;word-spacing:0px;text-anchor:middle;fill:#000000;fill-opacity:1;stroke:none"
           xml:space="preserve"><tspan
             y="-78.175148"
             x="-132.85078"
             id="tspan4038"
             sodipodi:role="line"
             style="font-size:7.90222311px;line-height:1.25;font-family:monospace"><tspan
               style="fill:#0088aa"
               id="tspan5941">1</tspan><tspan
               style="fill:#55d400"
               id="tspan5933">1</tspan><tspan
               style="fill:#ff6600"
               id="tspan5923">1</tspan></tspan></text>
      </g>
      <g
         id="g4238"
         transform="translate(174.35289,218.95157)">
        <text
           id="text4032-3"
           y="-90.693352"
           x="-164.2104"
           style="font-style:italic;font-variant:normal;font-weight:normal;font-stretch:normal;line-height:0%;font-family:monospace;-inkscape-font-specification:'Sans Italic';text-align:center;letter-spacing:0px;word-spacing:0px;text-anchor:middle;fill:#000000;fill-opacity:1;stroke:none"
           xml:space="preserve"><tspan
             y="-90.693352"
             x="-164.2104"
             id="tspan4034-6"
             sodipodi:role="line"
             style="font-size:7.90222216px;line-height:1.25;font-family:monospace">5</tspan></text>
        <text
           id="text4036-7"
           y="-90.693352"
           x="-132.89902"
           style="font-style:italic;font-variant:normal;font-weight:normal;font-stretch:normal;line-height:0%;font-family:monospace;-inkscape-font-specification:'Sans Italic';text-align:center;letter-spacing:0px;word-spacing:0px;text-anchor:middle;fill:#000000;fill-opacity:1;stroke:none"
           xml:space="preserve"><tspan
             y="-90.693352"
             x="-132.89902"
             id="tspan4038-5"
             sodipodi:role="line"
             style="font-size:7.90222216px;line-height:1.25;font-family:monospace"><tspan
               style="fill:#55d400"
               id="tspan5931">1</tspan><tspan
               style="fill:#ff6600"
               id="tspan5921">1</tspan><tspan
               style="fill:#ff0000"
               id="tspan5911">0</tspan></tspan></text>
      </g>
      <g
         id="g4250"
         transform="translate(174.33263,154.57366)">
        <text
           id="text4032-35"
           y="-68.456528"
           x="-164.2104"
           style="font-style:italic;font-variant:normal;font-weight:normal;font-stretch:normal;line-height:0%;font-family:monospace;-inkscape-font-specification:'Sans Italic';text-align:center;letter-spacing:0px;word-spacing:0px;text-anchor:middle;fill:#000000;fill-opacity:1;stroke:none"
           xml:space="preserve"><tspan
             y="-68.456528"
             x="-164.2104"
             id="tspan4034-62"
             sodipodi:role="line"
             style="font-size:7.90222216px;line-height:1.25;font-family:monospace">0</tspan></text>
        <text
           id="text4036-9"
           y="-68.456528"
           x="-132.54982"
           style="font-style:italic;font-variant:normal;font-weight:normal;font-stretch:normal;line-height:0%;font-family:monospace;-inkscape-font-specification:'Sans Italic';text-align:center;letter-spacing:0px;word-spacing:0px;text-anchor:middle;fill:#000000;fill-opacity:1;stroke:none"
           xml:space="preserve"><tspan
             y="-68.456528"
             x="-132.54982"
             id="tspan4038-1"
             sodipodi:role="line"
             style="font-size:7.90222216px;line-height:1.25;font-family:monospace"><tspan
               style="fill:#ff6600"
               id="tspan5913">0</tspan><tspan
               style="fill:#ff0000"
               id="tspan5903">1</tspan><tspan
               style="fill:#0088aa"
               id="tspan5943">1</tspan></tspan></text>
      </g>
      <g
         id="g4226"
         transform="translate(174.35289,227.75301)">
        <text
           id="text4032-2"
           y="-116.35123"
           x="-164.2104"
           style="font-style:italic;font-variant:normal;font-weight:normal;font-stretch:normal;line-height:0%;font-family:monospace;-inkscape-font-specification:'Sans Italic';text-align:center;letter-spacing:0px;word-spacing:0px;text-anchor:middle;fill:#000000;fill-opacity:1;stroke:none"
           xml:space="preserve"><tspan
             y="-116.35123"
             x="-164.2104"
             id="tspan4034-7"
             sodipodi:role="line"
             style="font-size:7.90222216px;line-height:1.25;font-family:monospace">3</tspan></text>
        <text
           id="text4036-0"
           y="-116.35123"
           x="-132.89902"
           style="font-style:italic;font-variant:normal;font-weight:normal;font-stretch:normal;line-height:0%;font-family:monospace;-inkscape-font-specification:'Sans Italic';text-align:center;letter-spacing:0px;word-spacing:0px;text-anchor:middle;fill:#000000;fill-opacity:1;stroke:none"
           xml:space="preserve"><tspan
             y="-116.35123"
             x="-132.89902"
             id="tspan4038-9"
             sodipodi:role="line"
             style="font-size:7.90222216px;line-height:1.25;font-family:monospace"><tspan
               style="fill:#ff0000"
               id="tspan5907">0</tspan><tspan
               style="fill:#0088aa"
               id="tspan5937">0</tspan><tspan
               style="fill:#55d400"
               id="tspan5929">1</tspan></tspan></text>
      </g>
      <g
         id="g4232"
         transform="translate(174.50337,225.91808)">
        <text
           id="text4032-36"
           y="-106.08808"
           x="-164.2104"
           style="font-style:italic;font-variant:normal;font-weight:normal;font-stretch:normal;line-height:0%;font-family:monospace;-inkscape-font-specification:'Sans Italic';text-align:center;letter-spacing:0px;word-spacing:0px;text-anchor:middle;fill:#000000;fill-opacity:1;stroke:none"
           xml:space="preserve"><tspan
             y="-106.08808"
             x="-164.2104"
             id="tspan4034-0"
             sodipodi:role="line"
             style="font-size:7.90222216px;line-height:1.25;font-family:monospace">4</tspan></text>
        <text
           id="text4036-6"
           y="-106.08808"
           x="-132.59805"
           style="font-style:italic;font-variant:normal;font-weight:normal;font-stretch:normal;line-height:0%;font-family:monospace;-inkscape-font-specification:'Sans Italic';text-align:center;letter-spacing:0px;word-spacing:0px;text-anchor:middle;fill:#000000;fill-opacity:1;stroke:none"
           xml:space="preserve"><tspan
             y="-106.08808"
             x="-132.59805"
             id="tspan4038-2"
             sodipodi:role="line"
             style="font-size:7.90222216px;line-height:1.25;font-family:monospace"><tspan
               style="fill:#ff6600"
               id="tspan5919">1</tspan><tspan
               style="fill:#ff0000"
               id="tspan5909">0</tspan><tspan
               style="fill:#0088aa"
               id="tspan5939">0</tspan></tspan></text>
      </g>
      <g
         id="g4192"
         transform="translate(174.50337,233.70358)">
        <text
           id="text4032-97"
           y="-139.15823"
           x="-164.2104"
           style="font-style:italic;font-variant:normal;font-weight:normal;font-stretch:normal;line-height:0%;font-family:monospace;-inkscape-font-specification:'Sans Italic';text-align:center;letter-spacing:0px;word-spacing:0px;text-anchor:middle;fill:#000000;fill-opacity:1;stroke:none"
           xml:space="preserve"><tspan
             y="-139.15823"
             x="-164.2104"
             id="tspan4034-3"
             sodipodi:role="line"
             style="font-size:7.90222216px;line-height:1.25;font-family:monospace">1</tspan></text>
        <text
           id="text4036-61"
           y="-139.15437"
           x="-132.59805"
           style="font-style:italic;font-variant:normal;font-weight:normal;font-stretch:normal;line-height:0%;font-family:monospace;-inkscape-font-specification:'Sans Italic';text-align:center;letter-spacing:0px;word-spacing:0px;text-anchor:middle;fill:#000000;fill-opacity:1;stroke:none"
           xml:space="preserve"><tspan
             y="-139.15437"
             x="-132.59805"
             id="tspan4038-29"
             sodipodi:role="line"
             style="font-size:7.90222216px;line-height:1.25;font-family:monospace"><tspan
               style="fill:#55d400"
               id="tspan5925">1</tspan><tspan
               style="fill:#ff6600"
               id="tspan5915">0</tspan><tspan
               style="fill:#ff0000"
               id="tspan5905">1</tspan></tspan></text>
      </g>
      <g
         id="g4198"
         transform="translate(174.47925,230.15811)">
        <text
           id="text4032-4"
           y="-127.18455"
           x="-164.2104"
           style="font-style:italic;font-variant:normal;font-weight:normal;font-stretch:normal;line-height:0%;font-family:monospace;-inkscape-font-specification:'Sans Italic';text-align:center;letter-spacing:0px;word-spacing:0px;text-anchor:middle;fill:#000000;fill-opacity:1;stroke:none"
           xml:space="preserve"><tspan
             y="-127.18455"
             x="-164.2104"
             id="tspan4034-50"
             sodipodi:role="line"
             style="font-size:7.90222216px;line-height:1.25;font-family:monospace">2</tspan></text>
        <text
           id="text4036-3"
           y="-127.18455"
           x="-132.54982"
           style="font-style:italic;font-variant:normal;font-weight:normal;font-stretch:normal;line-height:0%;font-family:monospace;-inkscape-font-specification:'Sans Italic';text-align:center;letter-spacing:0px;word-spacing:0px;text-anchor:middle;fill:#000000;fill-opacity:1;stroke:none"
           xml:space="preserve"><tspan
             y="-127.18455"
             x="-132.54982"
             id="tspan4038-6"
             sodipodi:role="line"
             style="font-size:7.90222216px;line-height:1.25;font-family:monospace"><tspan
               style="fill:#0088aa"
               id="tspan5935">0</tspan><tspan
               style="fill:#55d400"
               id="tspan5927">1</tspan><tspan
               style="fill:#ff6600"
               id="tspan5917">0</tspan></tspan></text>
      </g>
      <g
         id="g4280"
         transform="translate(-67.575992,39.319153)">
        <text
           id="text4262"
           y="36.424297"
           x="77.904648"
           style="font-style:italic;font-variant:normal;font-weight:normal;font-stretch:normal;line-height:0%;font-family:monospace;-inkscape-font-specification:'Sans Italic';text-align:center;letter-spacing:0px;word-spacing:0px;text-anchor:middle;fill:#000000;fill-opacity:1;stroke:none"
           xml:space="preserve"><tspan
             y="36.424297"
             x="77.904648"
             id="tspan4264"
             sodipodi:role="line"
             style="font-size:7.90222311px;line-height:1.25;font-family:monospace">phase</tspan></text>
        <text
           id="text4266"
           y="36.398113"
           x="109.03854"
           style="font-style:italic;font-variant:normal;font-weight:normal;font-stretch:normal;line-height:0%;font-family:monospace;-inkscape-font-specification:'Sans Italic';text-align:center;letter-spacing:0px;word-spacing:0px;text-anchor:middle;fill:#000000;fill-opacity:1;stroke:none"
           xml:space="preserve"><tspan
             y="36.398113"
             x="109.03854"
             id="tspan4268"
             sodipodi:role="line"
             style="font-size:7.90222311px;line-height:1.25;font-family:monospace">state</tspan></text>
      </g>
      <path
         style="fill:none;stroke:#000000;stroke-width:0.28222224px;stroke-linecap:butt;stroke-linejoin:miter;stroke-opacity:1"
         d="M -4.531499,77.761982 H 55.90599"
         id="path4286"
         inkscape:connector-curvature="0"
         sodipodi:nodetypes="cc" />
      <text
         id="text5259"
         y="63.792686"
         x="25.741264"
         style="font-style:italic;font-variant:normal;font-weight:normal;font-stretch:normal;line-height:0%;font-family:monospace;-inkscape-font-specification:'Sans Italic';text-align:center;letter-spacing:0px;word-spacing:0px;text-anchor:middle;fill:#000000;fill-opacity:1;stroke:none"
         xml:space="preserve"><tspan
           y="63.792686"
           x="25.741264"
           id="tspan5261"
           sodipodi:role="line"
           style="font-size:7.90222311px;line-height:1.25;font-family:monospace">Look-Up Table</tspan></text>
    </g>
    <g
       id="g6125"
       transform="translate(-10.851953,-18.865182)">
      <path
         style="fill:none;stroke:#000000;stroke-width:1.5;stroke-linecap:butt;stroke-linejoin:miter;stroke-miterlimit:4;stroke-dasharray:none;stroke-opacity:1;marker-end:url(#TriangleOutS-9-62)"
         d="M 57.124397,158.26604 H 72.331878"
         id="path4667-7-84"
         inkscape:connector-curvature="0"
         sodipodi:nodetypes="cc" />
      <path
         style="fill:none;stroke:#000000;stroke-width:1.5;stroke-linecap:butt;stroke-linejoin:miter;stroke-miterlimit:4;stroke-dasharray:none;stroke-opacity:1;marker-end:url(#TriangleOutS-9-0)"
         d="M 88.735709,158.26604 H 103.94319"
         id="path4667-7-6"
         inkscape:connector-curvature="0"
         sodipodi:nodetypes="cc" />
      <rect
         id="rect3680-62"
         width="12.85119"
         height="12.851193"
         x="43.577934"
         y="151.77159"
         style="fill:none;stroke:#000000;stroke-width:1.5;stroke-miterlimit:4;stroke-dasharray:none;stroke-opacity:1" />
      <flowRoot
         transform="matrix(0.26458333,0,0,0.26458333,13.916965,46.539744)"
         xml:space="preserve"
         id="flowRoot4496-9"
         style="font-style:normal;font-weight:normal;line-height:0.01%;font-family:sans-serif;text-align:center;letter-spacing:0px;word-spacing:0px;text-anchor:middle;fill:#000000;fill-opacity:1;stroke:none"><flowRegion
           id="flowRegion4498-9"
           style="text-align:center;text-anchor:middle"><rect
             id="rect4500-0"
             width="105.56094"
             height="91.418808"
             x="83.337585"
             y="408.34183"
             style="text-align:center;text-anchor:middle" /></flowRegion><flowPara
           id="flowPara4502-8"
           style="font-size:18.66666603px;line-height:1.25">F<flowSpan
   id="flowSpan7303"
   style="font-size:69.33288574%;baseline-shift:sub">2</flowSpan></flowPara></flowRoot>      <rect
         id="rect3680-6-1"
         width="12.85119"
         height="12.851193"
         x="75.267288"
         y="151.77159"
         style="fill:none;stroke:#000000;stroke-width:1.5;stroke-miterlimit:4;stroke-dasharray:none;stroke-opacity:1" />
      <flowRoot
         transform="matrix(0.26458333,0,0,0.26458333,45.592925,46.539744)"
         xml:space="preserve"
         id="flowRoot4496-7-0"
         style="font-style:normal;font-weight:normal;line-height:0.01%;font-family:sans-serif;text-align:center;letter-spacing:0px;word-spacing:0px;text-anchor:middle;fill:#000000;fill-opacity:1;stroke:none"><flowRegion
           id="flowRegion4498-5-3"
           style="text-align:center;text-anchor:middle"><rect
             id="rect4500-3-4"
             width="105.56094"
             height="91.418808"
             x="83.337585"
             y="408.34183"
             style="text-align:center;text-anchor:middle" /></flowRegion><flowPara
           id="flowPara4502-5-0"
           style="font-size:18.66666603px;line-height:1.25">F<flowSpan
   id="flowSpan7305"
   style="font-size:69.33288574%;baseline-shift:sub">1</flowSpan></flowPara></flowRoot>      <rect
         id="rect3680-9-1"
         width="12.85119"
         height="12.851193"
         x="107.48574"
         y="151.77159"
         style="fill:none;stroke:#000000;stroke-width:1.5;stroke-miterlimit:4;stroke-dasharray:none;stroke-opacity:1" />
      <flowRoot
         transform="matrix(0.26458333,0,0,0.26458333,77.767095,46.5155)"
         xml:space="preserve"
         id="flowRoot4496-1-9"
         style="font-style:normal;font-weight:normal;line-height:0.01%;font-family:sans-serif;text-align:center;letter-spacing:0px;word-spacing:0px;text-anchor:middle;fill:#000000;fill-opacity:1;stroke:none"><flowRegion
           id="flowRegion4498-2-6"
           style="text-align:center;text-anchor:middle"><rect
             id="rect4500-7-9"
             width="105.56094"
             height="91.418808"
             x="83.337585"
             y="408.34183"
             style="text-align:center;text-anchor:middle" /></flowRegion><flowPara
           id="flowPara4502-0-3"
           style="font-size:18.66666603px;line-height:1.25">F<flowSpan
   id="flowSpan7299"
   style="font-size:69.33288574%;baseline-shift:sub">0</flowSpan></flowPara></flowRoot>      <path
         style="fill:none;stroke:#000000;stroke-width:1.5;stroke-linecap:butt;stroke-linejoin:miter;stroke-miterlimit:4;stroke-dasharray:none;stroke-opacity:1;marker-end:url(#TriangleOutS-5-6)"
         d="m 121.403,158.19719 h 17.85334"
         id="path4667-6-2"
         inkscape:connector-curvature="0"
         sodipodi:nodetypes="cc" />
      <path
         style="fill:none;stroke:#000000;stroke-width:1.5;stroke-linecap:butt;stroke-linejoin:miter;stroke-miterlimit:4;stroke-dasharray:none;stroke-opacity:1;marker-end:url(#TriangleOutS-09-6-5)"
         d="m 130.11274,158.27864 v 24.83303 H 33.262245 v -24.88752 h 7.44022"
         id="path4667-71-94-8"
         inkscape:connector-curvature="0"
         sodipodi:nodetypes="ccccc" />
      <flowRoot
         xml:space="preserve"
         id="flowRoot12414-8"
         style="font-style:normal;font-weight:normal;line-height:0.01%;font-family:sans-serif;letter-spacing:0px;word-spacing:0px;fill:#000000;fill-opacity:1;stroke:none"
         transform="matrix(0.16512358,0,0,0.16512358,90.433866,106.48475)"><flowRegion
           id="flowRegion12416-1"><rect
             id="rect12418-2"
             width="100.98933"
             height="53.237206"
             x="57.857143"
             y="368.23398" /></flowRegion><flowPara
           style="font-size:40px;line-height:1.25"
           id="flowPara12420-8">c<flowSpan
   style="font-size:65.00091553%;baseline-shift:sub"
   id="flowSpan12422-9">1</flowSpan></flowPara></flowRoot>      <flowRoot
         xml:space="preserve"
         id="flowRoot12414-3"
         style="font-style:normal;font-weight:normal;line-height:0.01%;font-family:sans-serif;letter-spacing:0px;word-spacing:0px;fill:#000000;fill-opacity:1;stroke:none"
         transform="matrix(0.16512358,0,0,0.16512358,58.650324,106.48475)"><flowRegion
           id="flowRegion12416-6"><rect
             id="rect12418-8"
             width="115.55676"
             height="58.093014"
             x="57.857143"
             y="368.23398" /></flowRegion><flowPara
           style="font-size:40px;line-height:1.25"
           id="flowPara12420-02">c<flowSpan
   style="font-size:65.00091553%;baseline-shift:sub"
   id="flowSpan12422-1">2</flowSpan></flowPara></flowRoot>      <g
         id="g13321"
         transform="matrix(1,0,0,-1,69.912298,292.31626)">
        <path
           sodipodi:nodetypes="cc"
           inkscape:connector-curvature="0"
           id="path4667-54-7"
           d="M -4.038875,133.71428 V 116.39011"
           style="fill:none;stroke:#000000;stroke-width:1.5;stroke-linecap:butt;stroke-linejoin:miter;stroke-miterlimit:4;stroke-dasharray:none;stroke-opacity:1;marker-end:url(#TriangleOutS-7-86)" />
        <g
           transform="translate(-65.162011,-14.512772)"
           id="g10955">
          <circle
             style="fill:#fffffc;fill-opacity:1;stroke:#000000;stroke-width:1.22484827;stroke-miterlimit:4;stroke-dasharray:none;stroke-opacity:1"
             id="path4658-4-5"
             cx="61.043156"
             cy="123.8869"
             r="4.1466184" />
          <text
             xml:space="preserve"
             style="font-style:normal;font-weight:normal;line-height:0%;font-family:sans-serif;letter-spacing:0px;word-spacing:0px;fill:#000000;fill-opacity:1;stroke:none"
             x="57.422634"
             y="126.59596"
             id="text4656-5-8"><tspan
               style="font-size:8.64198494px;line-height:1.25"
               sodipodi:role="line"
               id="tspan4654-0-8"
               x="57.422634"
               y="126.59596">+</tspan></text>
        </g>
        <path
           sodipodi:nodetypes="cccc"
           inkscape:connector-curvature="0"
           id="path12689-0"
           d="m -7.5020032,129.05278 3.486166,-7.71887 3.48616299,7.71887 z"
           style="fill:#ffffff;fill-opacity:1;stroke:#000000;stroke-width:1;stroke-linecap:butt;stroke-linejoin:miter;stroke-miterlimit:4;stroke-dasharray:none;stroke-opacity:1" />
      </g>
      <g
         id="g13321-9"
         transform="matrix(1,0,0,-1,101.52363,292.31626)">
        <path
           sodipodi:nodetypes="cc"
           inkscape:connector-curvature="0"
           id="path4667-54-7-6"
           d="M -4.038875,133.71428 V 116.39011"
           style="fill:none;stroke:#000000;stroke-width:1.5;stroke-linecap:butt;stroke-linejoin:miter;stroke-miterlimit:4;stroke-dasharray:none;stroke-opacity:1;marker-end:url(#TriangleOutS-7-86-2)" />
        <g
           transform="translate(-65.162011,-14.512772)"
           id="g10955-0">
          <circle
             style="fill:#fffffc;fill-opacity:1;stroke:#000000;stroke-width:1.22484827;stroke-miterlimit:4;stroke-dasharray:none;stroke-opacity:1"
             id="path4658-4-5-2"
             cx="61.043156"
             cy="123.8869"
             r="4.1466184" />
          <text
             xml:space="preserve"
             style="font-style:normal;font-weight:normal;line-height:0%;font-family:sans-serif;letter-spacing:0px;word-spacing:0px;fill:#000000;fill-opacity:1;stroke:none"
             x="57.422634"
             y="126.59596"
             id="text4656-5-8-7"><tspan
               style="font-size:8.64198494px;line-height:1.25"
               sodipodi:role="line"
               id="tspan4654-0-8-6"
               x="57.422634"
               y="126.59596">+</tspan></text>
        </g>
        <path
           sodipodi:nodetypes="cccc"
           inkscape:connector-curvature="0"
           id="path12689-0-1"
           d="m -7.5020032,129.05278 3.486166,-7.71887 3.48616299,7.71887 z"
           style="fill:#ffffff;fill-opacity:1;stroke:#000000;stroke-width:1;stroke-linecap:butt;stroke-linejoin:miter;stroke-miterlimit:4;stroke-dasharray:none;stroke-opacity:1" />
      </g>
    </g>
    <text
       id="text7403"
       y="141.20995"
       x="198.67586"
       style="font-style:italic;font-variant:normal;font-weight:normal;font-stretch:normal;line-height:0%;font-family:monospace;-inkscape-font-specification:'Sans Italic';text-align:center;letter-spacing:0px;word-spacing:0px;text-anchor:middle;fill:#000000;fill-opacity:1;stroke:none"
       xml:space="preserve"><tspan
         style="font-style:normal;font-size:7.90222311px;line-height:1.25;font-family:monospace;-inkscape-font-specification:Monospace;fill:#ff0000;fill-opacity:1"
         y="141.20995"
         x="198.67586"
         id="tspan7405"
         sodipodi:role="line"><tspan
   id="tspan5945"
   style="fill:#0088aa">...1</tspan>1<tspan
   id="tspan5971"
   style="fill:#ff6600">0</tspan><tspan
   id="tspan5957"
   style="fill:#37c837">1</tspan><tspan
   id="tspan5947"
   style="fill:#0088aa">0</tspan>0<tspan
   id="tspan5973"
   style="fill:#ff6600">1</tspan><tspan
   id="tspan5963"
   style="fill:#37c837">1</tspan><tspan
   id="tspan5949"
   style="fill:#0088aa">1</tspan>0<tspan
   id="tspan5975"
   style="fill:#ff6600">1</tspan><tspan
   id="tspan5965"
   style="fill:#37c837">0</tspan><tspan
   id="tspan5951"
   style="fill:#0088aa">0</tspan>1<tspan
   id="tspan5977"
   style="fill:#ff6600">1</tspan><tspan
   id="tspan5967"
   style="fill:#37c837">1</tspan><tspan
   id="tspan5953"
   style="fill:#0088aa">0</tspan>1<tspan
   id="tspan5979"
   style="fill:#ff6600">0</tspan><tspan
   id="tspan5969"
   style="fill:#37c837">0</tspan><tspan
   id="tspan5955"
   style="fill:#0088aa">1</tspan>...</tspan></text>
    <g
       id="g6706"
       transform="translate(0,0.52916667)">
      <text
         transform="rotate(-90)"
         id="text4922"
         y="158.68246"
         x="-146.9655"
         style="font-style:normal;font-weight:normal;font-size:9.55145836px;line-height:1.25;font-family:sans-serif;letter-spacing:0px;word-spacing:0px;fill:#000000;fill-opacity:1;stroke:none;stroke-width:0.23878644"
         xml:space="preserve"><tspan
           style="stroke-width:0.23878644"
           y="158.68246"
           x="-146.9655"
           id="tspan4920"
           sodipodi:role="line">{</tspan></text>
      <text
         transform="rotate(-90)"
         id="text4922-3"
         y="168.23289"
         x="-146.9655"
         style="font-style:normal;font-weight:normal;font-size:9.55145836px;line-height:1.25;font-family:sans-serif;letter-spacing:0px;word-spacing:0px;fill:#000000;fill-opacity:1;stroke:none;stroke-width:0.23878644"
         xml:space="preserve"><tspan
           style="stroke-width:0.23878644"
           y="168.23289"
           x="-146.9655"
           id="tspan4920-6"
           sodipodi:role="line">{</tspan></text>
      <text
         transform="rotate(-90)"
         id="text4922-7"
         y="177.78336"
         x="-146.9655"
         style="font-style:normal;font-weight:normal;font-size:9.55145836px;line-height:1.25;font-family:sans-serif;letter-spacing:0px;word-spacing:0px;fill:#000000;fill-opacity:1;stroke:none;stroke-width:0.23878644"
         xml:space="preserve"><tspan
           style="stroke-width:0.23878644"
           y="177.78336"
           x="-146.9655"
           id="tspan4920-5"
           sodipodi:role="line">{</tspan></text>
      <text
         transform="rotate(-90)"
         id="text4922-35"
         y="187.33379"
         x="-146.9655"
         style="font-style:normal;font-weight:normal;font-size:9.55145836px;line-height:1.25;font-family:sans-serif;letter-spacing:0px;word-spacing:0px;fill:#000000;fill-opacity:1;stroke:none;stroke-width:0.23878644"
         xml:space="preserve"><tspan
           style="stroke-width:0.23878644"
           y="187.33379"
           x="-146.9655"
           id="tspan4920-62"
           sodipodi:role="line">{</tspan></text>
      <text
         transform="rotate(-90)"
         id="text4922-9"
         y="196.88422"
         x="-146.9655"
         style="font-style:normal;font-weight:normal;font-size:9.55145836px;line-height:1.25;font-family:sans-serif;letter-spacing:0px;word-spacing:0px;fill:#000000;fill-opacity:1;stroke:none;stroke-width:0.23878644"
         xml:space="preserve"><tspan
           style="stroke-width:0.23878644"
           y="196.88422"
           x="-146.9655"
           id="tspan4920-1"
           sodipodi:role="line">{</tspan></text>
      <text
         transform="rotate(-90)"
         id="text4922-2"
         y="206.43466"
         x="-146.9655"
         style="font-style:normal;font-weight:normal;font-size:9.55145836px;line-height:1.25;font-family:sans-serif;letter-spacing:0px;word-spacing:0px;fill:#000000;fill-opacity:1;stroke:none;stroke-width:0.23878644"
         xml:space="preserve"><tspan
           style="stroke-width:0.23878644"
           y="206.43466"
           x="-146.9655"
           id="tspan4920-7"
           sodipodi:role="line">{</tspan></text>
      <text
         transform="rotate(-90)"
         id="text4922-0"
         y="215.98509"
         x="-146.9655"
         style="font-style:normal;font-weight:normal;font-size:9.55145836px;line-height:1.25;font-family:sans-serif;letter-spacing:0px;word-spacing:0px;fill:#000000;fill-opacity:1;stroke:none;stroke-width:0.23878644"
         xml:space="preserve"><tspan
           style="stroke-width:0.23878644"
           y="215.98509"
           x="-146.9655"
           id="tspan4920-9"
           sodipodi:role="line">{</tspan></text>
      <text
         transform="rotate(-90)"
         id="text4922-36"
         y="225.53554"
         x="-146.9655"
         style="font-style:normal;font-weight:normal;font-size:9.55145836px;line-height:1.25;font-family:sans-serif;letter-spacing:0px;word-spacing:0px;fill:#000000;fill-opacity:1;stroke:none;stroke-width:0.23878644"
         xml:space="preserve"><tspan
           style="stroke-width:0.23878644"
           y="225.53554"
           x="-146.9655"
           id="tspan4920-0"
           sodipodi:role="line">{</tspan></text>
      <text
         transform="rotate(-90)"
         id="text4922-36-6"
         y="235.08598"
         x="-146.9655"
         style="font-style:normal;font-weight:normal;font-size:9.55145836px;line-height:1.25;font-family:sans-serif;letter-spacing:0px;word-spacing:0px;fill:#000000;fill-opacity:1;stroke:none;stroke-width:0.23878644"
         xml:space="preserve"><tspan
           style="stroke-width:0.23878644"
           y="235.08598"
           x="-146.9655"
           id="tspan4920-0-1"
           sodipodi:role="line">{</tspan></text>
      <text
         transform="rotate(-90)"
         id="text4922-36-2"
         y="244.63641"
         x="-146.9655"
         style="font-style:normal;font-weight:normal;font-size:9.55145836px;line-height:1.25;font-family:sans-serif;letter-spacing:0px;word-spacing:0px;fill:#000000;fill-opacity:1;stroke:none;stroke-width:0.23878644"
         xml:space="preserve"><tspan
           style="stroke-width:0.23878644"
           y="244.63641"
           x="-146.9655"
           id="tspan4920-0-9"
           sodipodi:role="line">{</tspan></text>
      <text
         id="text5325"
         y="154.34683"
         x="155.83806"
         style="font-style:normal;font-weight:normal;font-size:10.58333302px;line-height:1.25;font-family:sans-serif;text-align:center;letter-spacing:0px;word-spacing:0px;text-anchor:middle;fill:#000000;fill-opacity:1;stroke:none;stroke-width:0.26458332"
         xml:space="preserve"><tspan
           style="text-align:center;text-anchor:middle;stroke-width:0.26458332"
           y="154.34683"
           x="155.83806"
           id="tspan5323"
           sodipodi:role="line">0</tspan></text>
      <text
         id="text5325-6"
         y="154.42177"
         x="165.52802"
         style="font-style:normal;font-weight:normal;font-size:10.58333302px;line-height:1.25;font-family:sans-serif;text-align:center;letter-spacing:0px;word-spacing:0px;text-anchor:middle;fill:#000000;fill-opacity:1;stroke:none;stroke-width:0.26458332"
         xml:space="preserve"><tspan
           style="text-align:center;text-anchor:middle;stroke-width:0.26458332"
           y="154.42177"
           x="165.52802"
           id="tspan5323-9"
           sodipodi:role="line">2</tspan></text>
      <text
         id="text5325-3"
         y="154.35201"
         x="174.97511"
         style="font-style:normal;font-weight:normal;font-size:10.58333302px;line-height:1.25;font-family:sans-serif;text-align:center;letter-spacing:0px;word-spacing:0px;text-anchor:middle;fill:#000000;fill-opacity:1;stroke:none;stroke-width:0.26458332"
         xml:space="preserve"><tspan
           style="text-align:center;text-anchor:middle;stroke-width:0.26458332"
           y="154.35201"
           x="174.97511"
           id="tspan5323-7"
           sodipodi:role="line">4</tspan></text>
      <text
         id="text5325-4"
         y="154.34683"
         x="184.45061"
         style="font-style:normal;font-weight:normal;font-size:10.58333302px;line-height:1.25;font-family:sans-serif;text-align:center;letter-spacing:0px;word-spacing:0px;text-anchor:middle;fill:#000000;fill-opacity:1;stroke:none;stroke-width:0.26458332"
         xml:space="preserve"><tspan
           style="text-align:center;text-anchor:middle;stroke-width:0.26458332"
           y="154.34683"
           x="184.45061"
           id="tspan5323-5"
           sodipodi:role="line">6</tspan></text>
      <text
         id="text5325-2"
         y="154.35201"
         x="193.94421"
         style="font-style:normal;font-weight:normal;font-size:10.58333302px;line-height:1.25;font-family:sans-serif;text-align:center;letter-spacing:0px;word-spacing:0px;text-anchor:middle;fill:#000000;fill-opacity:1;stroke:none;stroke-width:0.26458332"
         xml:space="preserve"><tspan
           style="text-align:center;text-anchor:middle;stroke-width:0.26458332"
           y="154.35201"
           x="193.94421"
           id="tspan5323-54"
           sodipodi:role="line">1</tspan></text>
      <text
         id="text5325-7"
         y="154.34683"
         x="203.60834"
         style="font-style:normal;font-weight:normal;font-size:10.58333302px;line-height:1.25;font-family:sans-serif;text-align:center;letter-spacing:0px;word-spacing:0px;text-anchor:middle;fill:#000000;fill-opacity:1;stroke:none;stroke-width:0.26458332"
         xml:space="preserve"><tspan
           style="text-align:center;text-anchor:middle;stroke-width:0.26458332"
           y="154.34683"
           x="203.60834"
           id="tspan5323-4"
           sodipodi:role="line">3</tspan></text>
      <text
         id="text5325-43"
         y="154.27707"
         x="213.19237"
         style="font-style:normal;font-weight:normal;font-size:10.58333302px;line-height:1.25;font-family:sans-serif;text-align:center;letter-spacing:0px;word-spacing:0px;text-anchor:middle;fill:#000000;fill-opacity:1;stroke:none;stroke-width:0.26458332"
         xml:space="preserve"><tspan
           style="text-align:center;text-anchor:middle;stroke-width:0.26458332"
           y="154.27707"
           x="213.19237"
           id="tspan5323-0"
           sodipodi:role="line">5</tspan></text>
      <text
         id="text5325-78"
         y="154.34683"
         x="222.69113"
         style="font-style:normal;font-weight:normal;font-size:10.58333302px;line-height:1.25;font-family:sans-serif;text-align:center;letter-spacing:0px;word-spacing:0px;text-anchor:middle;fill:#000000;fill-opacity:1;stroke:none;stroke-width:0.26458332"
         xml:space="preserve"><tspan
           style="text-align:center;text-anchor:middle;stroke-width:0.26458332"
           y="154.34683"
           x="222.69113"
           id="tspan5323-6"
           sodipodi:role="line">0</tspan></text>
      <text
         id="text5325-8"
         y="154.42177"
         x="232.38109"
         style="font-style:normal;font-weight:normal;font-size:10.58333302px;line-height:1.25;font-family:sans-serif;text-align:center;letter-spacing:0px;word-spacing:0px;text-anchor:middle;fill:#000000;fill-opacity:1;stroke:none;stroke-width:0.26458332"
         xml:space="preserve"><tspan
           style="text-align:center;text-anchor:middle;stroke-width:0.26458332"
           y="154.42177"
           x="232.38109"
           id="tspan5323-8"
           sodipodi:role="line">2</tspan></text>
      <text
         id="text5325-431"
         y="154.35201"
         x="241.82817"
         style="font-style:normal;font-weight:normal;font-size:10.58333302px;line-height:1.25;font-family:sans-serif;text-align:center;letter-spacing:0px;word-spacing:0px;text-anchor:middle;fill:#000000;fill-opacity:1;stroke:none;stroke-width:0.26458332"
         xml:space="preserve"><tspan
           style="text-align:center;text-anchor:middle;stroke-width:0.26458332"
           y="154.35201"
           x="241.82817"
           id="tspan5323-49"
           sodipodi:role="line">4</tspan></text>
    </g>
    <g
       id="g6744"
       transform="translate(0,-0.52916667)">
      <text
         transform="matrix(0,1,1,0,0,0)"
         id="text4922-78"
         y="163.44559"
         x="129.81102"
         style="font-style:normal;font-weight:normal;font-size:9.55145836px;line-height:1.25;font-family:sans-serif;letter-spacing:0px;word-spacing:0px;fill:#000000;fill-opacity:1;stroke:none;stroke-width:0.23878644"
         xml:space="preserve"><tspan
           style="stroke-width:0.23878644"
           y="163.44559"
           x="129.81102"
           id="tspan4920-4"
           sodipodi:role="line">{</tspan></text>
      <text
         transform="matrix(0,1,1,0,0,0)"
         id="text4922-3-5"
         y="173.00543"
         x="129.81102"
         style="font-style:normal;font-weight:normal;font-size:9.55145836px;line-height:1.25;font-family:sans-serif;letter-spacing:0px;word-spacing:0px;fill:#000000;fill-opacity:1;stroke:none;stroke-width:0.23878644"
         xml:space="preserve"><tspan
           style="stroke-width:0.23878644"
           y="173.00543"
           x="129.81102"
           id="tspan4920-6-0"
           sodipodi:role="line">{</tspan></text>
      <text
         transform="matrix(0,1,1,0,0,0)"
         id="text4922-7-3"
         y="182.56526"
         x="129.81102"
         style="font-style:normal;font-weight:normal;font-size:9.55145836px;line-height:1.25;font-family:sans-serif;letter-spacing:0px;word-spacing:0px;fill:#000000;fill-opacity:1;stroke:none;stroke-width:0.23878644"
         xml:space="preserve"><tspan
           style="stroke-width:0.23878644"
           y="182.56526"
           x="129.81102"
           id="tspan4920-5-6"
           sodipodi:role="line">{</tspan></text>
      <text
         transform="matrix(0,1,1,0,0,0)"
         id="text4922-35-1"
         y="192.12508"
         x="129.81102"
         style="font-style:normal;font-weight:normal;font-size:9.55145836px;line-height:1.25;font-family:sans-serif;letter-spacing:0px;word-spacing:0px;fill:#000000;fill-opacity:1;stroke:none;stroke-width:0.23878644"
         xml:space="preserve"><tspan
           style="stroke-width:0.23878644"
           y="192.12508"
           x="129.81102"
           id="tspan4920-62-0"
           sodipodi:role="line">{</tspan></text>
      <text
         transform="matrix(0,1,1,0,0,0)"
         id="text4922-9-6"
         y="201.68491"
         x="129.81102"
         style="font-style:normal;font-weight:normal;font-size:9.55145836px;line-height:1.25;font-family:sans-serif;letter-spacing:0px;word-spacing:0px;fill:#000000;fill-opacity:1;stroke:none;stroke-width:0.23878644"
         xml:space="preserve"><tspan
           style="stroke-width:0.23878644"
           y="201.68491"
           x="129.81102"
           id="tspan4920-1-3"
           sodipodi:role="line">{</tspan></text>
      <text
         transform="matrix(0,1,1,0,0,0)"
         id="text4922-2-2"
         y="211.24474"
         x="129.81102"
         style="font-style:normal;font-weight:normal;font-size:9.55145836px;line-height:1.25;font-family:sans-serif;letter-spacing:0px;word-spacing:0px;fill:#000000;fill-opacity:1;stroke:none;stroke-width:0.23878644"
         xml:space="preserve"><tspan
           style="stroke-width:0.23878644"
           y="211.24474"
           x="129.81102"
           id="tspan4920-7-0"
           sodipodi:role="line">{</tspan></text>
      <text
         transform="matrix(0,1,1,0,0,0)"
         id="text4922-0-6"
         y="220.80457"
         x="129.81102"
         style="font-style:normal;font-weight:normal;font-size:9.55145836px;line-height:1.25;font-family:sans-serif;letter-spacing:0px;word-spacing:0px;fill:#000000;fill-opacity:1;stroke:none;stroke-width:0.23878644"
         xml:space="preserve"><tspan
           style="stroke-width:0.23878644"
           y="220.80457"
           x="129.81102"
           id="tspan4920-9-1"
           sodipodi:role="line">{</tspan></text>
      <text
         transform="matrix(0,1,1,0,0,0)"
         id="text4922-36-5"
         y="230.3644"
         x="129.81102"
         style="font-style:normal;font-weight:normal;font-size:9.55145836px;line-height:1.25;font-family:sans-serif;letter-spacing:0px;word-spacing:0px;fill:#000000;fill-opacity:1;stroke:none;stroke-width:0.23878644"
         xml:space="preserve"><tspan
           style="stroke-width:0.23878644"
           y="230.3644"
           x="129.81102"
           id="tspan4920-0-5"
           sodipodi:role="line">{</tspan></text>
      <text
         transform="matrix(0,1,1,0,0,0)"
         id="text4922-36-6-4"
         y="239.92422"
         x="129.81102"
         style="font-style:normal;font-weight:normal;font-size:9.55145836px;line-height:1.25;font-family:sans-serif;letter-spacing:0px;word-spacing:0px;fill:#000000;fill-opacity:1;stroke:none;stroke-width:0.23878644"
         xml:space="preserve"><tspan
           style="stroke-width:0.23878644"
           y="239.92422"
           x="129.81102"
           id="tspan4920-0-1-7"
           sodipodi:role="line">{</tspan></text>
      <text
         id="text5325-6-4"
         y="129.28827"
         x="160.50557"
         style="font-style:normal;font-weight:normal;font-size:10.58333302px;line-height:1.25;font-family:sans-serif;text-align:center;letter-spacing:0px;word-spacing:0px;text-anchor:middle;fill:#000000;fill-opacity:1;stroke:none;stroke-width:0.26458332"
         xml:space="preserve"><tspan
           style="text-align:center;text-anchor:middle;stroke-width:0.26458332"
           y="129.28827"
           x="160.50557"
           id="tspan5323-9-9"
           sodipodi:role="line">1</tspan></text>
      <text
         id="text5325-3-0"
         y="129.21851"
         x="170.17908"
         style="font-style:normal;font-weight:normal;font-size:10.58333302px;line-height:1.25;font-family:sans-serif;text-align:center;letter-spacing:0px;word-spacing:0px;text-anchor:middle;fill:#000000;fill-opacity:1;stroke:none;stroke-width:0.26458332"
         xml:space="preserve"><tspan
           style="text-align:center;text-anchor:middle;stroke-width:0.26458332"
           y="129.21851"
           x="170.17908"
           id="tspan5323-7-9"
           sodipodi:role="line">3</tspan></text>
      <text
         id="text5325-4-1"
         y="129.21333"
         x="179.77251"
         style="font-style:normal;font-weight:normal;font-size:10.58333302px;line-height:1.25;font-family:sans-serif;text-align:center;letter-spacing:0px;word-spacing:0px;text-anchor:middle;fill:#000000;fill-opacity:1;stroke:none;stroke-width:0.26458332"
         xml:space="preserve"><tspan
           style="text-align:center;text-anchor:middle;stroke-width:0.26458332"
           y="129.21333"
           x="179.77251"
           id="tspan5323-5-7"
           sodipodi:role="line">5</tspan></text>
      <text
         id="text5325-2-7"
         y="129.21851"
         x="189.28067"
         style="font-style:normal;font-weight:normal;font-size:10.58333302px;line-height:1.25;font-family:sans-serif;text-align:center;letter-spacing:0px;word-spacing:0px;text-anchor:middle;fill:#000000;fill-opacity:1;stroke:none;stroke-width:0.26458332"
         xml:space="preserve"><tspan
           style="text-align:center;text-anchor:middle;stroke-width:0.26458332"
           y="129.21851"
           x="189.28067"
           id="tspan5323-54-1"
           sodipodi:role="line">0</tspan></text>
      <text
         id="text5325-7-1"
         y="129.21333"
         x="198.98001"
         style="font-style:normal;font-weight:normal;font-size:10.58333302px;line-height:1.25;font-family:sans-serif;text-align:center;letter-spacing:0px;word-spacing:0px;text-anchor:middle;fill:#000000;fill-opacity:1;stroke:none;stroke-width:0.26458332"
         xml:space="preserve"><tspan
           style="text-align:center;text-anchor:middle;stroke-width:0.26458332"
           y="129.21333"
           x="198.98001"
           id="tspan5323-4-5"
           sodipodi:role="line">2</tspan></text>
      <text
         id="text5325-43-9"
         y="129.14357"
         x="208.43649"
         style="font-style:normal;font-weight:normal;font-size:10.58333302px;line-height:1.25;font-family:sans-serif;text-align:center;letter-spacing:0px;word-spacing:0px;text-anchor:middle;fill:#000000;fill-opacity:1;stroke:none;stroke-width:0.26458332"
         xml:space="preserve"><tspan
           style="text-align:center;text-anchor:middle;stroke-width:0.26458332"
           y="129.14357"
           x="208.43649"
           id="tspan5323-0-7"
           sodipodi:role="line">4</tspan></text>
      <text
         id="text5325-78-7"
         y="129.21333"
         x="217.92139"
         style="font-style:normal;font-weight:normal;font-size:10.58333302px;line-height:1.25;font-family:sans-serif;text-align:center;letter-spacing:0px;word-spacing:0px;text-anchor:middle;fill:#000000;fill-opacity:1;stroke:none;stroke-width:0.26458332"
         xml:space="preserve"><tspan
           style="text-align:center;text-anchor:middle;stroke-width:0.26458332"
           y="129.21333"
           x="217.92139"
           id="tspan5323-6-6"
           sodipodi:role="line">6</tspan></text>
      <text
         id="text5325-8-7"
         y="129.28827"
         x="227.42438"
         style="font-style:normal;font-weight:normal;font-size:10.58333302px;line-height:1.25;font-family:sans-serif;text-align:center;letter-spacing:0px;word-spacing:0px;text-anchor:middle;fill:#000000;fill-opacity:1;stroke:none;stroke-width:0.26458332"
         xml:space="preserve"><tspan
           style="text-align:center;text-anchor:middle;stroke-width:0.26458332"
           y="129.28827"
           x="227.42438"
           id="tspan5323-8-3"
           sodipodi:role="line">1</tspan></text>
      <text
         id="text5325-431-6"
         y="129.21851"
         x="237.0979"
         style="font-style:normal;font-weight:normal;font-size:10.58333302px;line-height:1.25;font-family:sans-serif;text-align:center;letter-spacing:0px;word-spacing:0px;text-anchor:middle;fill:#000000;fill-opacity:1;stroke:none;stroke-width:0.26458332"
         xml:space="preserve"><tspan
           style="text-align:center;text-anchor:middle;stroke-width:0.26458332"
           y="129.21851"
           x="237.0979"
           id="tspan5323-49-5"
           sodipodi:role="line">3</tspan></text>
    </g>
  </g>
</svg>
