<?xml version="1.0" encoding="UTF-8" standalone="no"?>
<!-- Created with Inkscape (http://www.inkscape.org/) -->

<svg
   xmlns:dc="http://purl.org/dc/elements/1.1/"
   xmlns:cc="http://creativecommons.org/ns#"
   xmlns:rdf="http://www.w3.org/1999/02/22-rdf-syntax-ns#"
   xmlns:svg="http://www.w3.org/2000/svg"
   xmlns="http://www.w3.org/2000/svg"
   xmlns:sodipodi="http://sodipodi.sourceforge.net/DTD/sodipodi-0.dtd"
   xmlns:inkscape="http://www.inkscape.org/namespaces/inkscape"
   width="210mm"
   height="297mm"
   viewBox="0 0 210 297"
   version="1.1"
   id="svg8"
   inkscape:version="0.92.1 r15371"
   sodipodi:docname="ocupacion.svg"
   inkscape:export-filename="ocupacion.png"
   inkscape:export-xdpi="96"
   inkscape:export-ydpi="96">
  <sodipodi:namedview
     id="base"
     pagecolor="#ffffff"
     bordercolor="#666666"
     borderopacity="1.0"
     inkscape:pageopacity="0.0"
     inkscape:pageshadow="2"
     inkscape:zoom="0.04375"
     inkscape:cx="424.83324"
     inkscape:cy="-3751.2896"
     inkscape:document-units="mm"
     inkscape:current-layer="layer1"
     showgrid="false"
     inkscape:window-width="1366"
     inkscape:window-height="717"
     inkscape:window-x="0"
     inkscape:window-y="27"
     inkscape:window-maximized="1"
     showguides="true"
     inkscape:guide-bbox="true" />
  <defs
     id="defs2">
    <marker
       style="overflow:visible"
       id="TriangleOutM"
       refX="0.0"
       refY="0.0"
       orient="auto"
       inkscape:stockid="TriangleOutM">
      <path
         transform="scale(0.4)"
         style="fill-rule:evenodd;stroke:#000000;stroke-width:1.0pt"
         d="M 5.77,0.0 L -2.88,5.0 L -2.88,-5.0 L 5.77,0.0 z "
         id="path3971" />
    </marker>
    <marker
       style="overflow:visible"
       id="TriangleOutS"
       refX="0.0"
       refY="0.0"
       orient="auto"
       inkscape:stockid="TriangleOutS">
      <path
         transform="scale(0.2)"
         style="fill-rule:evenodd;stroke:#000000;stroke-width:1.0pt"
         d="M 5.77,0.0 L -2.88,5.0 L -2.88,-5.0 L 5.77,0.0 z "
         id="path3974" />
    </marker>
    <marker
       style="overflow:visible"
       id="TriangleInM"
       refX="0.0"
       refY="0.0"
       orient="auto"
       inkscape:stockid="TriangleInM">
      <path
         transform="scale(-0.4)"
         style="fill-rule:evenodd;stroke:#000000;stroke-width:1.0pt"
         d="M 5.77,0.0 L -2.88,5.0 L -2.88,-5.0 L 5.77,0.0 z "
         id="path3962" />
    </marker>
    <marker
       inkscape:isstock="true"
       style="overflow:visible;"
       id="Arrow2Mend"
       refX="0.0"
       refY="0.0"
       orient="auto"
       inkscape:stockid="Arrow2Mend">
      <path
         transform="scale(0.6) rotate(180) translate(0,0)"
         d="M 8.7185878,4.0337352 L -2.2072895,0.016013256 L 8.7185884,-4.0017078 C 6.9730900,-1.6296469 6.9831476,1.6157441 8.7185878,4.0337352 z "
         style="fill-rule:evenodd;stroke-width:0.625;stroke-linejoin:round;stroke:#000000;stroke-opacity:1;fill:#000000;fill-opacity:1"
         id="path4611" />
    </marker>
    <marker
       inkscape:isstock="true"
       style="overflow:visible;"
       id="Arrow1Send"
       refX="0.0"
       refY="0.0"
       orient="auto"
       inkscape:stockid="Arrow1Send">
      <path
         transform="scale(0.2) rotate(180) translate(6,0)"
         style="fill-rule:evenodd;stroke:#000000;stroke-width:1pt;stroke-opacity:1;fill:#000000;fill-opacity:1"
         d="M 0.0,0.0 L 5.0,-5.0 L -12.5,0.0 L 5.0,5.0 L 0.0,0.0 z "
         id="path4599" />
    </marker>
    <marker
       inkscape:stockid="Arrow1Mstart"
       orient="auto"
       refY="0.0"
       refX="0.0"
       id="marker5002"
       style="overflow:visible"
       inkscape:isstock="true">
      <path
         id="path5000"
         d="M 0.0,0.0 L 5.0,-5.0 L -12.5,0.0 L 5.0,5.0 L 0.0,0.0 z "
         style="fill-rule:evenodd;stroke:#000000;stroke-width:1pt;stroke-opacity:1;fill:#000000;fill-opacity:1"
         transform="scale(0.4) translate(10,0)" />
    </marker>
    <marker
       inkscape:isstock="true"
       style="overflow:visible;"
       id="Arrow1Mend"
       refX="0.0"
       refY="0.0"
       orient="auto"
       inkscape:stockid="Arrow1Mend">
      <path
         transform="scale(0.4) rotate(180) translate(10,0)"
         style="fill-rule:evenodd;stroke:#000000;stroke-width:1pt;stroke-opacity:1;fill:#000000;fill-opacity:1"
         d="M 0.0,0.0 L 5.0,-5.0 L -12.5,0.0 L 5.0,5.0 L 0.0,0.0 z "
         id="path4593" />
    </marker>
    <marker
       inkscape:isstock="true"
       style="overflow:visible"
       id="TriangleOutS-7-86-4"
       refX="0"
       refY="0"
       orient="auto"
       inkscape:stockid="TriangleOutS">
      <path
         transform="scale(0.2,0.2)"
         style="fill:#000000;fill-opacity:1;fill-rule:evenodd;stroke:#000000;stroke-width:1pt;stroke-opacity:1"
         d="M 5.77,0 -2.88,5 V -5 z"
         id="path4817-452-2-29"
         inkscape:connector-curvature="0" />
    </marker>
    <marker
       inkscape:isstock="true"
       style="overflow:visible"
       id="TriangleOutS-7-86-1"
       refX="0"
       refY="0"
       orient="auto"
       inkscape:stockid="TriangleOutS">
      <path
         transform="scale(0.2,0.2)"
         style="fill:#000000;fill-opacity:1;fill-rule:evenodd;stroke:#000000;stroke-width:1pt;stroke-opacity:1"
         d="M 5.77,0 -2.88,5 V -5 z"
         id="path4817-452-2-0"
         inkscape:connector-curvature="0" />
    </marker>
    <marker
       inkscape:isstock="true"
       style="overflow:visible"
       id="TriangleOutS-7-86-3"
       refX="0"
       refY="0"
       orient="auto"
       inkscape:stockid="TriangleOutS">
      <path
         transform="scale(0.2,0.2)"
         style="fill:#000000;fill-opacity:1;fill-rule:evenodd;stroke:#000000;stroke-width:1pt;stroke-opacity:1"
         d="M 5.77,0 -2.88,5 V -5 z"
         id="path4817-452-2-2"
         inkscape:connector-curvature="0" />
    </marker>
    <marker
       inkscape:isstock="true"
       style="overflow:visible"
       id="TriangleOutS-7-86-2"
       refX="0"
       refY="0"
       orient="auto"
       inkscape:stockid="TriangleOutS">
      <path
         transform="scale(0.2,0.2)"
         style="fill:#000000;fill-opacity:1;fill-rule:evenodd;stroke:#000000;stroke-width:1pt;stroke-opacity:1"
         d="M 5.77,0 -2.88,5 V -5 z"
         id="path4817-452-2-9"
         inkscape:connector-curvature="0" />
    </marker>
    <marker
       inkscape:isstock="true"
       style="overflow:visible"
       id="TriangleOutS-7-86"
       refX="0"
       refY="0"
       orient="auto"
       inkscape:stockid="TriangleOutS">
      <path
         transform="scale(0.2,0.2)"
         style="fill:#000000;fill-opacity:1;fill-rule:evenodd;stroke:#000000;stroke-width:1pt;stroke-opacity:1"
         d="M 5.77,0 -2.88,5 V -5 z"
         id="path4817-452-2"
         inkscape:connector-curvature="0" />
    </marker>
    <marker
       inkscape:isstock="true"
       style="overflow:visible"
       id="TriangleOutS-09-6-5"
       refX="0"
       refY="0"
       orient="auto"
       inkscape:stockid="TriangleOutS">
      <path
         transform="scale(0.2,0.2)"
         style="fill:#000000;fill-opacity:1;fill-rule:evenodd;stroke:#000000;stroke-width:1pt;stroke-opacity:1"
         d="M 5.77,0 -2.88,5 V -5 z"
         id="path4817-17-3-0"
         inkscape:connector-curvature="0" />
    </marker>
    <marker
       inkscape:isstock="true"
       style="overflow:visible"
       id="TriangleOutS-5-6"
       refX="0"
       refY="0"
       orient="auto"
       inkscape:stockid="TriangleOutS">
      <path
         transform="scale(0.2,0.2)"
         style="fill:#000000;fill-opacity:1;fill-rule:evenodd;stroke:#000000;stroke-width:1pt;stroke-opacity:1"
         d="M 5.77,0 -2.88,5 V -5 z"
         id="path4817-47-4"
         inkscape:connector-curvature="0" />
    </marker>
    <marker
       inkscape:isstock="true"
       style="overflow:visible"
       id="TriangleOutS-9-9"
       refX="0"
       refY="0"
       orient="auto"
       inkscape:stockid="TriangleOutS">
      <path
         transform="scale(0.2,0.2)"
         style="fill:#000000;fill-opacity:1;fill-rule:evenodd;stroke:#000000;stroke-width:1pt;stroke-opacity:1"
         d="M 5.77,0 -2.88,5 V -5 z"
         id="path4817-4-7"
         inkscape:connector-curvature="0" />
    </marker>
    <marker
       inkscape:isstock="true"
       style="overflow:visible"
       id="TriangleOutS-9-6"
       refX="0"
       refY="0"
       orient="auto"
       inkscape:stockid="TriangleOutS">
      <path
         transform="scale(0.2,0.2)"
         style="fill:#000000;fill-opacity:1;fill-rule:evenodd;stroke:#000000;stroke-width:1pt;stroke-opacity:1"
         d="M 5.77,0 -2.88,5 V -5 z"
         id="path4817-4-3"
         inkscape:connector-curvature="0" />
    </marker>
    <marker
       inkscape:isstock="true"
       style="overflow:visible"
       id="TriangleOutS-9-4"
       refX="0"
       refY="0"
       orient="auto"
       inkscape:stockid="TriangleOutS">
      <path
         transform="scale(0.2,0.2)"
         style="fill:#000000;fill-opacity:1;fill-rule:evenodd;stroke:#000000;stroke-width:1pt;stroke-opacity:1"
         d="M 5.77,0 -2.88,5 V -5 z"
         id="path4817-4-8"
         inkscape:connector-curvature="0" />
    </marker>
    <marker
       inkscape:isstock="true"
       style="overflow:visible"
       id="TriangleOutS-9-0"
       refX="0"
       refY="0"
       orient="auto"
       inkscape:stockid="TriangleOutS">
      <path
         transform="scale(0.2,0.2)"
         style="fill:#000000;fill-opacity:1;fill-rule:evenodd;stroke:#000000;stroke-width:1pt;stroke-opacity:1"
         d="M 5.77,0 -2.88,5 V -5 z"
         id="path4817-4-9"
         inkscape:connector-curvature="0" />
    </marker>
    <marker
       inkscape:isstock="true"
       style="overflow:visible"
       id="TriangleOutS-9-62"
       refX="0"
       refY="0"
       orient="auto"
       inkscape:stockid="TriangleOutS">
      <path
         transform="scale(0.2,0.2)"
         style="fill:#000000;fill-opacity:1;fill-rule:evenodd;stroke:#000000;stroke-width:1pt;stroke-opacity:1"
         d="M 5.77,0 -2.88,5 V -5 z"
         id="path4817-4-5"
         inkscape:connector-curvature="0" />
    </marker>
    <marker
       inkscape:isstock="true"
       style="overflow:visible"
       id="TriangleOutS-9-62-1"
       refX="0"
       refY="0"
       orient="auto"
       inkscape:stockid="TriangleOutS">
      <path
         transform="scale(0.2,0.2)"
         style="fill:#000000;fill-opacity:1;fill-rule:evenodd;stroke:#000000;stroke-width:1pt;stroke-opacity:1"
         d="M 5.77,0 -2.88,5 V -5 z"
         id="path4817-4-5-0"
         inkscape:connector-curvature="0" />
    </marker>
  </defs>
  <metadata
     id="metadata5">
    <rdf:RDF>
      <cc:Work
         rdf:about="">
        <dc:format>image/svg+xml</dc:format>
        <dc:type
           rdf:resource="http://purl.org/dc/dcmitype/StillImage" />
        <dc:title />
      </cc:Work>
    </rdf:RDF>
  </metadata>
  <g
     id="layer1"
     inkscape:groupmode="layer"
     inkscape:label="Layer 1">
    <g
       id="g4963"
       inkscape:export-filename="./g6010.png"
       inkscape:export-xdpi="200"
       inkscape:export-ydpi="200"
       transform="translate(0,-22.558827)">
      <g
         id="g4783"
         transform="translate(31.750001,-21.166667)">
        <rect
           style="fill:#ff0000;fill-opacity:0.21917808;stroke:none"
           id="rect3831"
           width="222.36826"
           height="37.061375"
           x="-24.773254"
           y="195.52605" />
        <rect
           ry="0"
           y="136.21065"
           x="-39.455254"
           height="118.73894"
           width="251.73225"
           id="rect3148"
           style="fill:none;stroke:#000000;stroke-width:1;stroke-miterlimit:4;stroke-dasharray:none;stroke-opacity:1" />
        <path
           sodipodi:nodetypes="cc"
           inkscape:connector-curvature="0"
           id="path4286"
           d="M -27.832418,155.87596 H 192.25407"
           style="fill:none;stroke:#000000;stroke-width:0.28222224px;stroke-linecap:butt;stroke-linejoin:miter;stroke-opacity:1" />
        <g
           id="g4913">
          <g
             transform="translate(0,-0.63711475)"
             id="g3758">
            <text
               xml:space="preserve"
               style="font-style:italic;font-variant:normal;font-weight:normal;font-stretch:normal;line-height:0%;font-family:monospace;-inkscape-font-specification:'Sans Italic';text-align:end;letter-spacing:0px;word-spacing:0px;text-anchor:end;fill:#000000;fill-opacity:1;stroke:none"
               x="37.919468"
               y="169.28081"
               id="text3382"><tspan
                 style="font-size:7.90222311px;line-height:1.25;font-family:monospace"
                 sodipodi:role="line"
                 id="tspan3384"
                 x="37.919468"
                 y="169.28081">GPS C/A</tspan></text>
            <text
               xml:space="preserve"
               style="font-style:italic;font-variant:normal;font-weight:normal;font-stretch:normal;line-height:0%;font-family:monospace;-inkscape-font-specification:'Sans Italic';text-align:center;letter-spacing:0px;word-spacing:0px;text-anchor:middle;fill:#000000;fill-opacity:1;stroke:none"
               x="89.846809"
               y="169.66086"
               id="text3386"><tspan
                 style="font-size:7.90222311px;line-height:1.25;font-family:monospace"
                 sodipodi:role="line"
                 id="tspan3388"
                 x="89.846809"
                 y="169.66086">2 x 10 bits</tspan></text>
            <text
               xml:space="preserve"
               style="font-style:italic;font-variant:normal;font-weight:normal;font-stretch:normal;line-height:0%;font-family:monospace;-inkscape-font-specification:'Sans Italic';text-align:start;letter-spacing:0px;word-spacing:0px;text-anchor:start;fill:#000000;fill-opacity:1;stroke:none"
               x="141.87448"
               y="159.01717"
               id="text3390"><tspan
                 style="font-size:7.90222311px;line-height:1.25;font-family:monospace"
                 sodipodi:role="line"
                 id="tspan3392"
                 x="141.87448"
                 y="159.01717"> </tspan><tspan
                 style="font-size:7.90222311px;line-height:1.25;font-family:monospace"
                 sodipodi:role="line"
                 id="tspan3394"
                 x="141.87448"
                 y="168.89494">256 bytes</tspan></text>
          </g>
          <g
             transform="translate(0,0.43605022)"
             id="g3749">
            <text
               xml:space="preserve"
               style="font-style:italic;font-variant:normal;font-weight:normal;font-stretch:normal;line-height:0%;font-family:monospace;-inkscape-font-specification:'Sans Italic';text-align:end;letter-spacing:0px;word-spacing:0px;text-anchor:end;fill:#000000;fill-opacity:1;stroke:none"
               x="37.105316"
               y="187.81161"
               id="text3382-3"><tspan
                 style="font-size:7.90222216px;line-height:1.25;font-family:monospace"
                 sodipodi:role="line"
                 id="tspan3384-6"
                 x="37.105316"
                 y="187.81161">GLONASS L1OF</tspan></text>
            <text
               xml:space="preserve"
               style="font-style:italic;font-variant:normal;font-weight:normal;font-stretch:normal;line-height:0%;font-family:monospace;-inkscape-font-specification:'Sans Italic';text-align:center;letter-spacing:0px;word-spacing:0px;text-anchor:middle;fill:#000000;fill-opacity:1;stroke:none"
               x="89.736839"
               y="188.19167"
               id="text3386-7"><tspan
                 style="font-size:7.90222216px;line-height:1.25;font-family:monospace"
                 sodipodi:role="line"
                 id="tspan3388-5"
                 x="89.736839"
                 y="188.19167">9 bits</tspan></text>
            <text
               xml:space="preserve"
               style="font-style:italic;font-variant:normal;font-weight:normal;font-stretch:normal;line-height:0%;font-family:monospace;-inkscape-font-specification:'Sans Italic';text-align:start;letter-spacing:0px;word-spacing:0px;text-anchor:start;fill:#000000;fill-opacity:1;stroke:none"
               x="141.54265"
               y="177.54797"
               id="text3390-3"><tspan
                 style="font-size:7.90222216px;line-height:1.25;font-family:monospace"
                 sodipodi:role="line"
                 id="tspan3392-5"
                 x="141.54265"
                 y="177.54797"> </tspan><tspan
                 style="font-size:7.90222216px;line-height:1.25;font-family:monospace"
                 sodipodi:role="line"
                 id="tspan3394-6"
                 x="141.54265"
                 y="187.42575">64 bytes</tspan></text>
          </g>
          <g
             id="g4795">
            <text
               xml:space="preserve"
               style="font-style:italic;font-variant:normal;font-weight:normal;font-stretch:normal;line-height:0%;font-family:monospace;-inkscape-font-specification:'Sans Italic';text-align:end;letter-spacing:0px;word-spacing:0px;text-anchor:end;fill:#000000;fill-opacity:1;stroke:none"
               x="37.298248"
               y="207.85164"
               id="text3382-3-2"><tspan
                 style="font-size:7.90222216px;line-height:1.25;font-family:monospace"
                 sodipodi:role="line"
                 id="tspan3384-6-9"
                 x="37.298248"
                 y="207.85164">GPS L2C</tspan></text>
            <text
               xml:space="preserve"
               style="font-style:italic;font-variant:normal;font-weight:normal;font-stretch:normal;line-height:0%;font-family:monospace;-inkscape-font-specification:'Sans Italic';text-align:center;letter-spacing:0px;word-spacing:0px;text-anchor:middle;fill:#000000;fill-opacity:1;stroke:none"
               x="89.846809"
               y="208.23169"
               id="text3386-7-1"><tspan
                 style="font-size:7.90222216px;line-height:1.25;font-family:monospace"
                 sodipodi:role="line"
                 id="tspan3388-5-2"
                 x="89.846809"
                 y="208.23169">27 bits</tspan></text>
            <text
               xml:space="preserve"
               style="font-style:italic;font-variant:normal;font-weight:normal;font-stretch:normal;line-height:0%;font-family:monospace;-inkscape-font-specification:'Sans Italic';text-align:start;letter-spacing:0px;word-spacing:0px;text-anchor:start;fill:#000000;fill-opacity:1;stroke:none"
               x="141.8822"
               y="197.588"
               id="text3390-3-7"><tspan
                 style="font-size:7.90222216px;line-height:1.25;font-family:monospace"
                 sodipodi:role="line"
                 id="tspan3392-5-0"
                 x="141.8822"
                 y="197.588"> </tspan><tspan
                 style="font-size:7.90222216px;line-height:1.25;font-family:monospace"
                 sodipodi:role="line"
                 id="tspan3394-6-9"
                 x="141.8822"
                 y="207.46577">512 MB</tspan></text>
          </g>
          <g
             id="g4804">
            <text
               xml:space="preserve"
               style="font-style:italic;font-variant:normal;font-weight:normal;font-stretch:normal;line-height:0%;font-family:monospace;-inkscape-font-specification:'Sans Italic';text-align:end;letter-spacing:0px;word-spacing:0px;text-anchor:end;fill:#000000;fill-opacity:1;stroke:none"
               x="37.298248"
               y="226.68971"
               id="text3382-3-2-3"><tspan
                 style="font-size:7.90222216px;line-height:1.25;font-family:monospace"
                 sodipodi:role="line"
                 id="tspan3384-6-9-6"
                 x="37.298248"
                 y="226.68971">GPS L2C</tspan></text>
            <text
               xml:space="preserve"
               style="font-style:italic;font-variant:normal;font-weight:normal;font-stretch:normal;line-height:0%;font-family:monospace;-inkscape-font-specification:'Sans Italic';text-align:center;letter-spacing:0px;word-spacing:0px;text-anchor:middle;fill:#000000;fill-opacity:1;stroke:none"
               x="90.344559"
               y="227.06976"
               id="text3386-7-1-0"><tspan
                 style="font-size:7.90222216px;line-height:1.25;font-family:monospace"
                 sodipodi:role="line"
                 id="tspan3388-5-2-6"
                 x="90.344559"
                 y="227.06976">27 bits (trimmed)</tspan></text>
            <text
               xml:space="preserve"
               style="font-style:italic;font-variant:normal;font-weight:normal;font-stretch:normal;line-height:0%;font-family:monospace;-inkscape-font-specification:'Sans Italic';text-align:start;letter-spacing:0px;word-spacing:0px;text-anchor:start;fill:#000000;fill-opacity:1;stroke:none"
               x="141.8822"
               y="216.42607"
               id="text3390-3-7-2"><tspan
                 style="font-size:7.90222216px;line-height:1.25;font-family:monospace"
                 sodipodi:role="line"
                 id="tspan3392-5-0-6"
                 x="141.8822"
                 y="216.42607"> </tspan><tspan
                 style="font-size:7.90222216px;line-height:1.25;font-family:monospace"
                 sodipodi:role="line"
                 id="tspan3394-6-9-1"
                 x="141.8822"
                 y="226.30385">5.84 MB</tspan></text>
          </g>
          <g
             id="g3722">
            <text
               xml:space="preserve"
               style="font-style:italic;font-variant:normal;font-weight:normal;font-stretch:normal;line-height:0%;font-family:monospace;-inkscape-font-specification:'Sans Italic';text-align:end;letter-spacing:0px;word-spacing:0px;text-anchor:end;fill:#000000;fill-opacity:1;stroke:none"
               x="37.699532"
               y="246.45767"
               id="text3382-3-2-3-8"><tspan
                 style="font-size:7.90222216px;line-height:1.25;font-family:monospace"
                 sodipodi:role="line"
                 id="tspan3384-6-9-6-7"
                 x="37.699532"
                 y="246.45767">GPS L5</tspan></text>
            <text
               xml:space="preserve"
               style="font-style:italic;font-variant:normal;font-weight:normal;font-stretch:normal;line-height:0%;font-family:monospace;-inkscape-font-specification:'Sans Italic';text-align:center;letter-spacing:0px;word-spacing:0px;text-anchor:middle;fill:#000000;fill-opacity:1;stroke:none"
               x="89.893112"
               y="246.83771"
               id="text3386-7-1-0-9"><tspan
                 style="font-size:7.90222216px;line-height:1.25;font-family:monospace"
                 sodipodi:role="line"
                 id="tspan3388-5-2-6-2"
                 x="89.893112"
                 y="246.83771">3 x 13 bits</tspan></text>
            <text
               xml:space="preserve"
               style="font-style:italic;font-variant:normal;font-weight:normal;font-stretch:normal;line-height:0%;font-family:monospace;-inkscape-font-specification:'Sans Italic';text-align:start;letter-spacing:0px;word-spacing:0px;text-anchor:start;fill:#000000;fill-opacity:1;stroke:none"
               x="141.42303"
               y="236.19403"
               id="text3390-3-7-2-0"><tspan
                 style="font-size:7.90222216px;line-height:1.25;font-family:monospace"
                 sodipodi:role="line"
                 id="tspan3392-5-0-6-2"
                 x="141.42303"
                 y="236.19403"> </tspan><tspan
                 style="font-size:7.90222216px;line-height:1.25;font-family:monospace"
                 sodipodi:role="line"
                 id="tspan3394-6-9-1-3"
                 x="141.42303"
                 y="246.07181">16 kB</tspan></text>
          </g>
          <g
             transform="translate(0,3.049674e-6)"
             id="g3767">
            <text
               xml:space="preserve"
               style="font-style:italic;font-variant:normal;font-weight:normal;font-stretch:normal;line-height:0%;font-family:monospace;-inkscape-font-specification:'Sans Italic';text-align:end;letter-spacing:0px;word-spacing:0px;text-anchor:end;fill:#000000;fill-opacity:1;stroke:none"
               x="38.204994"
               y="149.03972"
               id="text3382-7"><tspan
                 style="font-size:7.90222216px;line-height:1.25;font-family:monospace"
                 sodipodi:role="line"
                 id="tspan3384-5"
                 x="38.204994"
                 y="149.03972">Señal</tspan></text>
            <text
               xml:space="preserve"
               style="font-style:italic;font-variant:normal;font-weight:normal;font-stretch:normal;line-height:0%;font-family:monospace;-inkscape-font-specification:'Sans Italic';text-align:center;letter-spacing:0px;word-spacing:0px;text-anchor:middle;fill:#000000;fill-opacity:1;stroke:none"
               x="89.707901"
               y="149.41977"
               id="text3386-9"><tspan
                 style="font-size:7.90222216px;line-height:1.25;font-family:monospace"
                 sodipodi:role="line"
                 x="89.707901"
                 y="149.41977"
                 id="tspan3584">Generadores</tspan></text>
            <text
               xml:space="preserve"
               style="font-style:italic;font-variant:normal;font-weight:normal;font-stretch:normal;line-height:0%;font-family:monospace;-inkscape-font-specification:'Sans Italic';text-align:start;letter-spacing:0px;word-spacing:0px;text-anchor:start;fill:#000000;fill-opacity:1;stroke:none"
               x="141.58124"
               y="138.77608"
               id="text3390-2"><tspan
                 style="font-size:7.90222216px;line-height:1.25;font-family:monospace"
                 sodipodi:role="line"
                 id="tspan3392-8"
                 x="141.58124"
                 y="138.77608"> </tspan><tspan
                 style="font-size:7.90222216px;line-height:1.25;font-family:monospace"
                 sodipodi:role="line"
                 id="tspan3394-9"
                 x="141.58124"
                 y="148.65385">Ocupación</tspan></text>
          </g>
        </g>
      </g>
    </g>
    <g
       id="g6050">
      <g
         transform="matrix(1.5184116,0,0,1.6986763,-143.65339,-147.25738)"
         id="g5994">
        <rect
           style="opacity:0.98000004;fill:#00ff00;fill-opacity:0.21917808;stroke:#000000;stroke-width:0.61424679;stroke-miterlimit:4;stroke-dasharray:none;stroke-opacity:1"
           id="rect5017"
           width="150.66472"
           height="93.115921"
           x="275.57855"
           y="141.98807" />
        <rect
           style="opacity:0.87999998;fill:#00ff00;fill-opacity:0.21917808;stroke:#000000;stroke-width:0.18427405;stroke-miterlimit:4;stroke-dasharray:none;stroke-opacity:1"
           id="rect5017-1"
           width="45.199417"
           height="27.934774"
           x="275.57227"
           y="207.35751" />
        <text
           xml:space="preserve"
           style="font-style:italic;font-variant:normal;font-weight:normal;font-stretch:normal;line-height:0%;font-family:monospace;-inkscape-font-specification:'Sans Italic';text-align:center;letter-spacing:0px;word-spacing:0px;text-anchor:middle;opacity:0.98000004;fill:#000000;fill-opacity:1;stroke:none"
           x="350.9903"
           y="184.38536"
           id="text5045"><tspan
             style="font-style:normal;font-size:4.85391521px;line-height:1.25;font-family:monospace;-inkscape-font-specification:Monospace"
             sodipodi:role="line"
             id="tspan5047"
             x="350.9903"
             y="184.38536">tabla de Look-Up para inicialización del</tspan><tspan
             id="tspan5972"
             style="font-style:normal;font-size:4.85391521px;line-height:1.25;font-family:monospace;-inkscape-font-specification:Monospace"
             sodipodi:role="line"
             x="350.9903"
             y="190.45276">LFSR de señales GPS L2C</tspan><tspan
             style="font-style:normal;font-size:4.85391521px;line-height:1.25;font-family:monospace;-inkscape-font-specification:Monospace"
             sodipodi:role="line"
             x="350.9903"
             y="196.52014"
             id="tspan5049">5.84 MB</tspan></text>
        <flowRoot
           xml:space="preserve"
           id="flowRoot5931"
           style="font-style:italic;font-variant:normal;font-weight:normal;font-stretch:normal;line-height:0.01%;font-family:monospace;-inkscape-font-specification:'Sans Italic';text-align:center;letter-spacing:0px;word-spacing:0px;text-anchor:middle;fill:#000000;fill-opacity:1;stroke:none"
           transform="matrix(0.1733541,0,0,0.1733541,105.23614,57.637252)"><flowRegion
             id="flowRegion5933"
             style="font-family:monospace"><rect
               id="rect5935"
               width="248.77147"
               height="149.13728"
               x="988.57141"
               y="892.36218"
               style="font-family:monospace" /></flowRegion><flowPara
             id="flowPara5937"
             style="font-style:normal;font-size:20px;line-height:1.25;font-family:monospace;-inkscape-font-specification:Monospace">resto del FW</flowPara><flowPara
             id="flowPara5939"
             style="font-style:normal;font-size:20px;line-height:1.25;font-family:monospace;-inkscape-font-specification:Monospace">del receptor</flowPara><flowPara
             id="flowPara5976"
             style="font-style:normal;font-size:20px;line-height:1.25;font-family:monospace;-inkscape-font-specification:Monospace">(código + datos)</flowPara><flowPara
             id="flowPara5978"
             style="font-style:normal;font-size:20px;line-height:1.25;font-family:monospace;-inkscape-font-specification:Monospace">approx. 600 kB</flowPara><flowPara
             id="flowPara5941"
             style="font-style:normal;font-size:20px;line-height:1.25;font-family:monospace;-inkscape-font-specification:Monospace"> </flowPara></flowRoot>      </g>
      <text
         transform="scale(0.94545191,1.0576953)"
         id="text5956"
         y="247.11148"
         x="411.63657"
         style="font-style:italic;font-variant:normal;font-weight:normal;font-stretch:normal;line-height:0%;font-family:monospace;-inkscape-font-specification:'Sans Italic';text-align:center;letter-spacing:0px;word-spacing:0px;text-anchor:middle;fill:#000000;fill-opacity:1;stroke:none"
         xml:space="preserve"><tspan
           y="247.11148"
           x="415.4538"
           id="tspan5958"
           sodipodi:role="line"
           style="font-size:12.69110203px;line-height:1.25;font-family:monospace"> </tspan><tspan
           style="font-style:italic;font-size:12.69110203px;line-height:1.25;font-family:monospace;-inkscape-font-specification:'Monospace Italic';text-align:center;text-anchor:middle"
           y="262.97537"
           x="411.63657"
           id="tspan5960"
           sodipodi:role="line">Caso de aplicación real en un sistema embebido</tspan><tspan
           style="font-style:italic;font-size:12.69110203px;line-height:1.25;font-family:monospace;-inkscape-font-specification:'Monospace Italic';text-align:center;text-anchor:middle"
           id="tspan5962"
           y="278.83923"
           x="411.63657"
           sodipodi:role="line">receptor de señales C/A y L2C</tspan></text>
    </g>
  </g>
</svg>
